Address = 3203 , provost , montreal , QC , H8T1R1
Address = 2203 , provost , montreal , QC , H8T3R3
Address = 1203 , provost , montreal , QC , H8T8R8
Address = 4201 , provost , montreal , QC , H8T4R4
Address = 5205 , provost , montreal , QC , H8T7R7
